{"inputs":
  [
    {"input": 
      {"input":["-n", "10.30", "-a", "ted"] }
      , 
       "output":
         {
      "exit": 0,
      "output": {
        "account": "ted",
        "initial_balance": 10.3
        }
      }
    } 
  ]
}
